[
  {"mlid":27,
    "parent_id" : 0,
    "menu_name" : "uaqs-footer-information-for",
    "link_path" : "https://www.arizona.edu/future-students",
    "link_title" : "Future Students",
    "external" : 1,
    "expanded" : 0,
    "weight" : 0
  },
  {"mlid":28,
    "parent_id" : 0,
    "menu_name" : "uaqs-footer-information-for",
    "link_path" : "https://www.arizona.edu/students",
    "link_title" : "Current Students",
    "external" : 1,
    "expanded" : 0,
    "weight" : 1
  },
  {"mlid":29,
    "parent_id" : 0,
    "menu_name" : "uaqs-footer-information-for",
    "link_path" : "https://www.arizona.edu/faculty-staff",
    "link_title" : "Faculty & Staff",
    "external" : 1,
    "expanded" : 0,
    "weight" : 2
  },
  {"mlid":30,
    "parent_id" : 0,
    "menu_name" : "uaqs-footer-information-for",
    "link_path" : "https://www.arizona.edu/alumni-donors",
    "link_title" : "Alumni & Donors",
    "external" : 1,
    "expanded" : 0,
    "weight" : 3
  },
  {"mlid":31,
    "parent_id" : 0,
    "menu_name" : "uaqs-footer-information-for",
    "link_path" : "https://www.arizona.edu/parents-visitors",
    "link_title" : "Parents & Visitors",
    "external" : 1,
    "expanded" : 0,
    "weight" : 4
  },
  {"mlid":32,
    "parent_id" : 0,
    "menu_name" : "uaqs-footer-information-for",
    "link_path" : "https://www.arizona.edu/corporations-businesses",
    "link_title" : "Corporations & Businesses",
    "external" : 1,
    "expanded" : 0,
    "weight" : 5
  },
  {"mlid":33,
    "parent_id" : 0,
    "menu_name" : "uaqs-footer-topics",
    "link_path" : "https://www.arizona.edu/about",
    "link_title" : "About the University",
    "external" : 1,
    "expanded" : 0,
    "weight" : 0
  },
  {"mlid":34,
    "parent_id" : 0,
    "menu_name" : "uaqs-footer-topics",
    "link_path" : "https://www.arizona.edu/academics",
    "link_title" : "Academics",
    "external" : 1,
    "expanded" : 0,
    "weight" : 0
  },
  {"mlid":35,
    "parent_id" : 0,
    "menu_name" : "uaqs-footer-topics",
    "link_path" : "https://www.arizona.edu/arts-museums",
    "link_title" : "Arts & Museums",
    "external" : 1,
    "expanded" : 0,
    "weight" : 0
  },
  {"mlid":36,
    "parent_id" : 0,
    "menu_name" : "uaqs-footer-topics",
    "link_path" : "https://www.arizona.edu/athletics-recreation",
    "link_title" : "Athletics & Recreation",
    "external" : 1,
    "expanded" : 0,
    "weight" : 0
  },
  {"mlid":37,
    "parent_id" : 0,
    "menu_name" : "uaqs-footer-topics",
    "link_path" : "https://www.arizona.edu/colleges-schools",
    "link_title" : "Colleges, Schools, Departments",
    "external" : 1,
    "expanded" : 0,
    "weight" : 0
  },
  {"mlid":38,
    "parent_id" : 0,
    "menu_name" : "uaqs-footer-topics",
    "link_path" : "http://diversity.arizona.edu",
    "link_title" : "Diversity",
    "external" : 1,
    "expanded" : 0,
    "weight" : 0
  },
  {"mlid":39,
    "parent_id" : 0,
    "menu_name" : "uaqs-footer-topics",
    "link_path" : "http://www.portal.environment.arizona.edu",
    "link_title" : "Environment & Sustainability",
    "external" : 1,
    "expanded" : 0,
    "weight" : 0
  },
  {"mlid":40,
    "parent_id" : 0,
    "menu_name" : "uaqs-footer-topics",
    "link_path" : "https://global.arizona.edu",
    "link_title" : "Global Engagement",
    "external" : 1,
    "expanded" : 0,
    "weight" : 0
  },
  {"mlid":41,
    "parent_id" : 0,
    "menu_name" : "uaqs-footer-topics",
    "link_path" : "https://www.arizona.edu/health-sciences",
    "link_title" : "Health & Medical",
    "external" : 1,
    "expanded" : 0,
    "weight" : 0
  },
  {"mlid":42,
    "parent_id" : 0,
    "menu_name" : "uaqs-footer-topics",
    "link_path" : "https://www.arizona.edu/libraries",
    "link_title" : "Libraries",
    "external" : 1,
    "expanded" : 0,
    "weight" : 0
  },
  {"mlid":43,
    "parent_id" : 0,
    "menu_name" : "uaqs-footer-topics",
    "link_path" : "http://uaforyou.arizona.edu",
    "link_title" : "Outreach & Extension",
    "external" : 1,
    "expanded" : 0,
    "weight" : 0
  },
  {"mlid":44,
    "parent_id" : 0,
    "menu_name" : "uaqs-footer-topics",
    "link_path" : "http://research.arizona.edu",
    "link_title" : "Research & Innovation",
    "external" : 1,
    "expanded" : 0,
    "weight" : 0
  },
  {"mlid":45,
    "parent_id" : 0,
    "menu_name" : "uaqs-footer-resources",
    "link_path" : "http://directory.arizona.edu/index",
    "link_title" : "A-Z Index",
    "external" : 1,
    "expanded" : 0,
    "weight" : 0
  },
  {"mlid":46,
    "parent_id" : 0,
    "menu_name" : "uaqs-footer-resources",
    "link_path" : "http://map.arizona.edu",
    "link_title" : "Campus Map",
    "external" : 1,
    "expanded" : 0,
    "weight" : 0
  },
  {"mlid":47,
    "parent_id" : 0,
    "menu_name" : "uaqs-footer-resources",
    "link_path" : "http://directory.arizona.edu/phonebook",
    "link_title" : "Phonebook",
    "external" : 1,
    "expanded" : 0,
    "weight" : 0
  },
  {"mlid":48,
    "parent_id" : 0,
    "menu_name" : "uaqs-footer-resources",
    "link_path" : "https://www.arizona.edu/calendars-events",
    "link_title" : "Calendars",
    "external" : 1,
    "expanded" : 0,
    "weight" : 0
  },
  {"mlid":49,
    "parent_id" : 0,
    "menu_name" : "uaqs-footer-resources",
    "link_path" : "http://uanews.org",
    "link_title" : "UANews",
    "external" : 1,
    "expanded" : 0,
    "weight" : 0
  },
  {"mlid":50,
    "parent_id" : 0,
    "menu_name" : "uaqs-footer-resources",
    "link_path" : "https://www.arizona.edu/weather",
    "link_title" : "Weather",
    "external" : 1,
    "expanded" : 0,
    "weight" : 0
  },
  {"mlid":51,
    "parent_id" : 0,
    "menu_name" : "uaqs-footer-main",
    "link_path" : "https://uacareers.com",
    "link_title" : "Employment",
    "external" : 1,
    "expanded" : 0,
    "weight" : 1
  },
  {"mlid":52,
    "parent_id" : 0,
    "menu_name" : "uaqs-footer-main",
    "link_path" : "https://www.arizona.edu/contact-us",
    "link_title" : "Contact Us",
    "external" : 1,
    "expanded" : 0,
    "weight" : 8
  },
  {"mlid":53,
    "parent_id" : 0,
    "menu_name" : "uaqs-footer-main",
    "link_path" : "http://cirt.arizona.edu",
    "link_title" : "Emergency Information",
    "external" : 1,
    "expanded" : 0,
    "weight" : 2
  },
  {"mlid":54,
    "parent_id" : 0,
    "menu_name" : "uaqs-footer-main",
    "link_path" : "https://www.arizona.edu/information-security-privacy",
    "link_title" : "Information Security & Privacy",
    "external" : 1,
    "expanded" : 0,
    "weight" : 5
  },
  {"mlid":55,
    "parent_id" : 0,
    "menu_name" : "uaqs-footer-main",
    "link_path" : "https://www.arizona.edu/copyright",
    "link_title" : "Copyright",
    "external" : 1,
    "expanded" : 0,
    "weight" : 6
  },
  {"mlid":56,
    "parent_id" : 0,
    "menu_name" : "uaqs-footer-main",
    "link_path" : "https://www.arizona.edu/campus-accessibility",
    "link_title" : "Campus Accessibility",
    "external" : 1,
    "expanded" : 0,
    "weight" : 7
  },
  {"mlid":57,
    "parent_id" : 0,
    "menu_name" : "uaqs-footer-main",
    "link_path" : "https://www.arizona.edu/website-feedback",
    "link_title" : "Feedback",
    "external" : 1,
    "expanded" : 0,
    "weight" : 9
  },
  {"mlid":58,
    "parent_id" : 0,
    "menu_name" : "uaqs-footer-main",
    "link_path" : "http://www.titleix.arizona.edu/",
    "link_title" : "Title IX",
    "external" : 1,
    "expanded" : 0,
    "weight" : 3
  },
  {"mlid":59,
    "parent_id" : 0,
    "menu_name" : "uaqs-footer-main",
    "link_path" : "http://cert.arizona.edu/ualert",
    "link_title" : "UAlert",
    "external" : 1,
    "expanded" : 0,
    "weight" : 4
  }
]
